TRIALNUM,PARTICIPANT,OBSERVED-SEQUENCE,FRUITS,DELAY-TOUCH
P 1,E,4,grapes,
P 1,P,0 4,blank grapes,5239
P 2,E,7,carrots,
P 2,P,7,carrots,
P 3,E,0 5,mushrooms peanuts,897
P 3,P,0 5,mushrooms peanuts,1700
P 4,E,6 2,pumpkin carrots,1002
P 4,P,6 2,pumpkin carrots,2516
P 5,E,8,apple,
P 5,P,8,apple,
P 6,E,1 3,carrots tomato,997
P 6,P,1 3,carrots tomato,1060
P 7,E,2 0,potato lettuce,819
P 7,P,2 0,potato lettuce,1005
P 8,E,4 6 5,grapes pineapple peach,1131 913
P 8,P,4 5 6,grapes peach pineapple strawberries,756 1674
P 9,E,7 3 8,lemon mushrooms lettuce,888 889
P 9,P,8 7 3,lettuce lemon mushrooms,1003 1742
P 1 0,E,1 2,peach carrots,611
P 1 0,P,1 2,peach carrots,1047
E 1,E,6 3,peanut carrots,965
E 1,P,6 3,peanut carrots,954
E 2,E,7 5,peas lemon,972
E 2,P,7 5,peas lemon,899
E 3,E,2 4 0,carrots tomato peas,874 833
E 3,P,2 4 0,carrots tomato peas,1400 591
E 4,E,5 2,tomato peanuts,726
E 4,P,5 2,tomato peanuts,738
E 5,E,0 8,lemon apple,872
E 5,P,0 8,lemon apple,2026
E 6,E,4 7 3,mushrooms peas corn,713 949
E 6,P,7 4 3,peas mushrooms corn,1068 1640
E 7,E,8 0 1,peanuts strawberries carrots,1136 708
E 7,P,8 0 1,peanuts strawberries carrots,1141 1131
E 8,E,1 6 5 2,peanuts tomato carrots mushrooms,910 937 845
E 8,P,1 2 5 6,peanuts mushrooms carrots tomato,1150 7791 1105
E 9,E,3 4 8,carrots apple pineapple,598 868
E 9,P,8 4 3,pineapple apple carrots,997 589 532
E 1 0,E,7 3 2,peanuts bananas pumpkin,734 894
E 1 0,P,7 3 2,peanuts bananas pumpkin,805 984
E 1 1,E,5 7 6 1,pumpkin pineapple pear bananas,857 769 929
E 1 1,P,5 6 7 1,pumpkin pear pineapple bananas,796 2973 741
E 1 2,E,3 8 7 5,tomato carrots pear grapes,1019 795 853
E 1 2,P,8 7 5,carrots pear grapes,638 872
E 1 3,E,8 5 4 6 7,peanuts mushrooms bananas tomato potato,760 650 821 840
E 1 3,P,8 5 7 6 4,peanuts mushrooms potato tomato bananas,916 842 884 1036
E 1 4,E,2 3,strawberries bananas,961
E 1 4, P, 5 5 5 5 5 5 5 5 5 3 5 5 5 5 5 5, pumpkin pumpkin pumpkin pumpkin pumpkin pumpkin pumpkin pumpkin pumpkin bananas pumpkin pumpkin pumpkin pumpkin pumpkin pumpkin
E 1 5, E, 0 1 8 4, peanut tomato pear potato
E 1 5, P, 5 5 2 1 0 5 4 3 4 4 4 5 5, bananas bananas lettuce tomato peanuts bananas potato carrots potato potato potato bananas bananas
E 1 6, E, 6 2 1 0, strawberries pineapple peach carrots
E 1 6, P, 2 1 0, pineapple peach carrots
